src/grouped_convolution/grouped_waveforms.vcd
$date
     Apr 10, 2026       10:40:11
$end

$version
 SystemC 3.0.1-Accellera --- Mar 11 2026 09:13:29
$end

$timescale
     1 ps
$end

$scope module SystemC $end
$var wire    1  aaaaa  clk       $end
$var wire    1  aaaab  rst       $end
$var wire   32  aaaac  act_0_0 [31:0]  $end
$var wire   32  aaaad  act_0_1 [31:0]  $end
$var wire   32  aaaae  act_0_2 [31:0]  $end
$var wire   32  aaaaf  act_0_3 [31:0]  $end
$var wire   32  aaaag  act_0_4 [31:0]  $end
$var wire   32  aaaah  act_1_0 [31:0]  $end
$var wire   32  aaaai  act_1_1 [31:0]  $end
$var wire   32  aaaaj  act_1_2 [31:0]  $end
$var wire   32  aaaak  act_1_3 [31:0]  $end
$var wire   32  aaaal  act_1_4 [31:0]  $end
$var wire   32  aaaam  act_2_0 [31:0]  $end
$var wire   32  aaaan  act_2_1 [31:0]  $end
$var wire   32  aaaao  act_2_2 [31:0]  $end
$var wire   32  aaaap  act_2_3 [31:0]  $end
$var wire   32  aaaaq  act_2_4 [31:0]  $end
$var wire   32  aaaar  act_3_0 [31:0]  $end
$var wire   32  aaaas  act_3_1 [31:0]  $end
$var wire   32  aaaat  act_3_2 [31:0]  $end
$var wire   32  aaaau  act_3_3 [31:0]  $end
$var wire   32  aaaav  act_3_4 [31:0]  $end
$var wire   32  aaaaw  psum_0_0 [31:0]  $end
$var wire   32  aaaax  psum_0_1 [31:0]  $end
$var wire   32  aaaay  psum_0_2 [31:0]  $end
$var wire   32  aaaaz  psum_0_3 [31:0]  $end
$var wire   32  aaaba  psum_1_0 [31:0]  $end
$var wire   32  aaabb  psum_1_1 [31:0]  $end
$var wire   32  aaabc  psum_1_2 [31:0]  $end
$var wire   32  aaabd  psum_1_3 [31:0]  $end
$var wire   32  aaabe  psum_2_0 [31:0]  $end
$var wire   32  aaabf  psum_2_1 [31:0]  $end
$var wire   32  aaabg  psum_2_2 [31:0]  $end
$var wire   32  aaabh  psum_2_3 [31:0]  $end
$var wire   32  aaabi  psum_3_0 [31:0]  $end
$var wire   32  aaabj  psum_3_1 [31:0]  $end
$var wire   32  aaabk  psum_3_2 [31:0]  $end
$var wire   32  aaabl  psum_3_3 [31:0]  $end
$var wire   32  aaabm  psum_4_0 [31:0]  $end
$var wire   32  aaabn  psum_4_1 [31:0]  $end
$var wire   32  aaabo  psum_4_2 [31:0]  $end
$var wire   32  aaabp  psum_4_3 [31:0]  $end
$upscope $end
$enddefinitions  $end

$comment
All initial values are dumped below at time 0 sec = 0 timescale units.
$end

$dumpvars
1aaaaa
1aaaab
b0 aaaac
b0 aaaad
b0 aaaae
b0 aaaaf
b0 aaaag
b0 aaaah
b0 aaaai
b0 aaaaj
b0 aaaak
b0 aaaal
b0 aaaam
b0 aaaan
b0 aaaao
b0 aaaap
b0 aaaaq
b0 aaaar
b0 aaaas
b0 aaaat
b0 aaaau
b0 aaaav
b0 aaaaw
b0 aaaax
b0 aaaay
b0 aaaaz
b0 aaaba
b0 aaabb
b0 aaabc
b0 aaabd
b0 aaabe
b0 aaabf
b0 aaabg
b0 aaabh
b0 aaabi
b0 aaabj
b0 aaabk
b0 aaabl
b0 aaabm
b0 aaabn
b0 aaabo
b0 aaabp
$end

#5000
0aaaaa

#10000
1aaaaa

#15000
0aaaaa

#20000
1aaaaa

#25000
0aaaaa

#30000
1aaaaa
0aaaab
b10 aaaac
b10 aaaad
b10 aaaba

#35000
0aaaaa

#40000
1aaaaa
b0 aaaac
b0 aaaad
b10 aaaae
b10 aaaah
b10 aaaai
b0 aaaba
b10 aaabb
b100 aaabe

#45000
0aaaaa

#50000
1aaaaa
b0 aaaae
b10 aaaaf
b0 aaaah
b0 aaaai
b10 aaaaj
b10 aaaam
b10 aaaan
b0 aaabb
b0 aaabe
b100 aaabf
b100 aaabi

#55000
0aaaaa

#60000
1aaaaa
b0 aaaaf
b10 aaaag
b0 aaaaj
b10 aaaak
b0 aaaam
b0 aaaan
b10 aaaao
b101 aaaar
b101 aaaas
b0 aaabf
b0 aaabi
b100 aaabj
b100 aaabm

#65000
0aaaaa

#70000
1aaaaa
1aaaab
b0 aaaag
b0 aaaak
b0 aaaao
b0 aaaar
b0 aaaas
b0 aaabj
b0 aaabm

#75000
0aaaaa

#80000
1aaaaa
0aaaab
b10 aaaac
b10 aaaad
b10 aaaba

#85000
0aaaaa

#90000
1aaaaa
b0 aaaac
b0 aaaad
b10 aaaae
b10 aaaah
b10 aaaai
b0 aaaba
b10 aaabb
b100 aaabe

#95000
0aaaaa

#100000
1aaaaa
b0 aaaae
b10 aaaaf
b0 aaaah
b0 aaaai
b10 aaaaj
b10 aaaam
b10 aaaan
b0 aaabb
b0 aaabe
b100 aaabf
b100 aaabi

#105000
0aaaaa

#110000
1aaaaa
b0 aaaaf
b10 aaaag
b0 aaaaj
b10 aaaak
b0 aaaam
b0 aaaan
b10 aaaao
b101 aaaar
b101 aaaas
b0 aaabf
b0 aaabi
b100 aaabj
b100 aaabm

#115000
0aaaaa

#120000
1aaaaa
1aaaab
b0 aaaag
b0 aaaak
b0 aaaao
b0 aaaar
b0 aaaas
b0 aaabj
b0 aaabm

#125000
0aaaaa

#130000
1aaaaa
0aaaab
b10 aaaac
b10 aaaad
b10 aaaba

#135000
0aaaaa

#140000
1aaaaa
b0 aaaac
b0 aaaad
b10 aaaae
b10 aaaah
b10 aaaai
b0 aaaba
b10 aaabb
b100 aaabe

#145000
0aaaaa

#150000
1aaaaa
b0 aaaae
b10 aaaaf
b0 aaaah
b0 aaaai
b10 aaaaj
b10 aaaam
b10 aaaan
b0 aaabb
b0 aaabe
b100 aaabf
b100 aaabi

#155000
0aaaaa

#160000
1aaaaa
b0 aaaaf
b10 aaaag
b0 aaaaj
b10 aaaak
b0 aaaam
b0 aaaan
b10 aaaao
b101 aaaar
b101 aaaas
b0 aaabf
b0 aaabi
b100 aaabj
b100 aaabm

#165000
0aaaaa

#170000
1aaaaa
1aaaab
b0 aaaag
b0 aaaak
b0 aaaao
b0 aaaar
b0 aaaas
b0 aaabj
b0 aaabm

#175000
0aaaaa

#180000
1aaaaa
0aaaab
b10 aaaac
b10 aaaad
b10 aaaba

#185000
0aaaaa

#190000
1aaaaa
b0 aaaac
b0 aaaad
b10 aaaae
b10 aaaah
b10 aaaai
b0 aaaba
b10 aaabb
b100 aaabe

#195000
0aaaaa

#200000
1aaaaa
b0 aaaae
b10 aaaaf
b0 aaaah
b0 aaaai
b10 aaaaj
b10 aaaam
b10 aaaan
b0 aaabb
b0 aaabe
b100 aaabf
b100 aaabi

#205000
0aaaaa

#210000
1aaaaa
b0 aaaaf
b10 aaaag
b0 aaaaj
b10 aaaak
b0 aaaam
b0 aaaan
b10 aaaao
b101 aaaar
b101 aaaas
b0 aaabf
b0 aaabi
b100 aaabj
b100 aaabm

#215000
0aaaaa

#220000
1aaaaa
1aaaab
b0 aaaag
b0 aaaak
b0 aaaao
b0 aaaar
b0 aaaas
b0 aaabj
b0 aaabm

#225000
0aaaaa

#230000
1aaaaa
0aaaab
b10 aaaac
b10 aaaad
b10 aaaba

#235000
0aaaaa

#240000
1aaaaa
b0 aaaac
b0 aaaad
b10 aaaae
b10 aaaah
b10 aaaai
b0 aaaba
b10 aaabb
b100 aaabe

#245000
0aaaaa

#250000
1aaaaa
b0 aaaae
b10 aaaaf
b0 aaaah
b0 aaaai
b10 aaaaj
b10 aaaam
b10 aaaan
b0 aaabb
b0 aaabe
b100 aaabf
b100 aaabi

#255000
0aaaaa

#260000
1aaaaa
b0 aaaaf
b10 aaaag
b0 aaaaj
b10 aaaak
b0 aaaam
b0 aaaan
b10 aaaao
b101 aaaar
b101 aaaas
b0 aaabf
b0 aaabi
b100 aaabj
b100 aaabm

#265000
0aaaaa

#270000
1aaaaa
1aaaab
b0 aaaag
b0 aaaak
b0 aaaao
b0 aaaar
b0 aaaas
b0 aaabj
b0 aaabm

#275000
0aaaaa

#280000
1aaaaa
0aaaab
b10 aaaac
b10 aaaad
b10 aaaba

#285000
0aaaaa

#290000
1aaaaa
b0 aaaac
b0 aaaad
b10 aaaae
b10 aaaah
b10 aaaai
b0 aaaba
b10 aaabb
b100 aaabe

#295000
0aaaaa

#300000
1aaaaa
b0 aaaae
b10 aaaaf
b0 aaaah
b0 aaaai
b10 aaaaj
b10 aaaam
b10 aaaan
b0 aaabb
b0 aaabe
b100 aaabf
b100 aaabi

#305000
0aaaaa

#310000
1aaaaa
b0 aaaaf
b10 aaaag
b0 aaaaj
b10 aaaak
b0 aaaam
b0 aaaan
b10 aaaao
b101 aaaar
b101 aaaas
b0 aaabf
b0 aaabi
b100 aaabj
b100 aaabm

#315000
0aaaaa

#320000
1aaaaa
1aaaab
b0 aaaag
b0 aaaak
b0 aaaao
b0 aaaar
b0 aaaas
b0 aaabj
b0 aaabm

#325000
0aaaaa

#330000
1aaaaa
0aaaab
b10 aaaac
b10 aaaad
b10 aaaba

#335000
0aaaaa

#340000
1aaaaa
b0 aaaac
b0 aaaad
b10 aaaae
b10 aaaah
b10 aaaai
b0 aaaba
b10 aaabb
b100 aaabe

#345000
0aaaaa

#350000
1aaaaa
b0 aaaae
b10 aaaaf
b0 aaaah
b0 aaaai
b10 aaaaj
b10 aaaam
b10 aaaan
b0 aaabb
b0 aaabe
b100 aaabf
b100 aaabi

#355000
0aaaaa

#360000
1aaaaa
b0 aaaaf
b10 aaaag
b0 aaaaj
b10 aaaak
b0 aaaam
b0 aaaan
b10 aaaao
b101 aaaar
b101 aaaas
b0 aaabf
b0 aaabi
b100 aaabj
b100 aaabm

#365000
0aaaaa

#370000
1aaaaa
1aaaab
b0 aaaag
b0 aaaak
b0 aaaao
b0 aaaar
b0 aaaas
b0 aaabj
b0 aaabm

#375000
0aaaaa

#380000
1aaaaa
0aaaab
b10 aaaac
b10 aaaad
b10 aaaba

#385000
0aaaaa

#390000
1aaaaa
b0 aaaac
b0 aaaad
b10 aaaae
b10 aaaah
b10 aaaai
b0 aaaba
b10 aaabb
b100 aaabe

#395000
0aaaaa

#400000
1aaaaa
b0 aaaae
b10 aaaaf
b0 aaaah
b0 aaaai
b10 aaaaj
b10 aaaam
b10 aaaan
b0 aaabb
b0 aaabe
b100 aaabf
b100 aaabi

#405000
0aaaaa

#410000
1aaaaa
b0 aaaaf
b10 aaaag
b0 aaaaj
b10 aaaak
b0 aaaam
b0 aaaan
b10 aaaao
b101 aaaar
b101 aaaas
b0 aaabf
b0 aaabi
b100 aaabj
b100 aaabm

#415000
0aaaaa

#420000
1aaaaa
1aaaab
b0 aaaag
b0 aaaak
b0 aaaao
b0 aaaar
b0 aaaas
b0 aaabj
b0 aaabm

#425000
0aaaaa

#430000
1aaaaa
0aaaab
b10 aaaac
b10 aaaad
b10 aaaba

#435000
0aaaaa

#440000
1aaaaa
b0 aaaac
b0 aaaad
b10 aaaae
b10 aaaah
b10 aaaai
b0 aaaba
b10 aaabb
b100 aaabe

#445000
0aaaaa

#450000
1aaaaa
b0 aaaae
b10 aaaaf
b0 aaaah
b0 aaaai
b10 aaaaj
b10 aaaam
b10 aaaan
b0 aaabb
b0 aaabe
b100 aaabf
b100 aaabi

#455000
0aaaaa

#460000
1aaaaa
b0 aaaaf
b10 aaaag
b0 aaaaj
b10 aaaak
b0 aaaam
b0 aaaan
b10 aaaao
b101 aaaar
b101 aaaas
b0 aaabf
b0 aaabi
b100 aaabj
b100 aaabm

#465000
0aaaaa

#470000
1aaaaa
1aaaab
b0 aaaag
b0 aaaak
b0 aaaao
b0 aaaar
b0 aaaas
b0 aaabj
b0 aaabm

#475000
0aaaaa

#480000
1aaaaa
0aaaab
b10 aaaac
b10 aaaad
b10 aaaba

#485000
0aaaaa

#490000
1aaaaa
b0 aaaac
b0 aaaad
b10 aaaae
b10 aaaah
b10 aaaai
b0 aaaba
b10 aaabb
b100 aaabe

#495000
0aaaaa

#500000
1aaaaa
b0 aaaae
b10 aaaaf
b0 aaaah
b0 aaaai
b10 aaaaj
b10 aaaam
b10 aaaan
b0 aaabb
b0 aaabe
b100 aaabf
b100 aaabi

#505000
0aaaaa

#510000
1aaaaa
b0 aaaaf
b10 aaaag
b0 aaaaj
b10 aaaak
b0 aaaam
b0 aaaan
b10 aaaao
b101 aaaar
b101 aaaas
b0 aaabf
b0 aaabi
b100 aaabj
b100 aaabm

#515000
0aaaaa

#520000
1aaaaa
1aaaab
b0 aaaag
b0 aaaak
b0 aaaao
b0 aaaar
b0 aaaas
b0 aaabj
b0 aaabm

#525000
0aaaaa

#530000
1aaaaa
0aaaab
b10 aaaac
b10 aaaad
b10 aaaba

#535000
0aaaaa

#540000
1aaaaa
b0 aaaac
b0 aaaad
b10 aaaae
b10 aaaah
b10 aaaai
b0 aaaba
b10 aaabb
b100 aaabe

#545000
0aaaaa

#550000
1aaaaa
b0 aaaae
b10 aaaaf
b0 aaaah
b0 aaaai
b10 aaaaj
b10 aaaam
b10 aaaan
b0 aaabb
b0 aaabe
b100 aaabf
b100 aaabi

#555000
0aaaaa

#560000
1aaaaa
b0 aaaaf
b10 aaaag
b0 aaaaj
b10 aaaak
b0 aaaam
b0 aaaan
b10 aaaao
b101 aaaar
b101 aaaas
b0 aaabf
b0 aaabi
b100 aaabj
b100 aaabm

#565000
0aaaaa

#570000
1aaaaa
1aaaab
b0 aaaag
b0 aaaak
b0 aaaao
b0 aaaar
b0 aaaas
b0 aaabj
b0 aaabm

#575000
0aaaaa

#580000
1aaaaa
0aaaab
b10 aaaac
b10 aaaad
b10 aaaba

#585000
0aaaaa

#590000
1aaaaa
b0 aaaac
b0 aaaad
b10 aaaae
b10 aaaah
b10 aaaai
b0 aaaba
b10 aaabb
b100 aaabe

#595000
0aaaaa

#600000
1aaaaa
b0 aaaae
b10 aaaaf
b0 aaaah
b0 aaaai
b10 aaaaj
b10 aaaam
b10 aaaan
b0 aaabb
b0 aaabe
b100 aaabf
b100 aaabi

#605000
0aaaaa

#610000
1aaaaa
b0 aaaaf
b10 aaaag
b0 aaaaj
b10 aaaak
b0 aaaam
b0 aaaan
b10 aaaao
b101 aaaar
b101 aaaas
b0 aaabf
b0 aaabi
b100 aaabj
b100 aaabm

#615000
0aaaaa

#620000
1aaaaa
1aaaab
b0 aaaag
b0 aaaak
b0 aaaao
b0 aaaar
b0 aaaas
b0 aaabj
b0 aaabm

#625000
0aaaaa

#630000
1aaaaa
0aaaab
b10 aaaac
b10 aaaad
b10 aaaba

#635000
0aaaaa

#640000
1aaaaa
b0 aaaac
b0 aaaad
b10 aaaae
b10 aaaah
b10 aaaai
b0 aaaba
b10 aaabb
b100 aaabe

#645000
0aaaaa

#650000
1aaaaa
b0 aaaae
b10 aaaaf
b0 aaaah
b0 aaaai
b10 aaaaj
b101 aaaam
b101 aaaan
b0 aaabb
b0 aaabe
b100 aaabf
b100 aaabi

#655000
0aaaaa

#660000
1aaaaa
b0 aaaaf
b10 aaaag
b0 aaaaj
b10 aaaak
b0 aaaam
b0 aaaan
b101 aaaao
b101 aaaar
b101 aaaas
b0 aaabf
b0 aaabi
b100 aaabj
b100 aaabm

#665000
0aaaaa

#670000
1aaaaa
1aaaab
b0 aaaag
b0 aaaak
b0 aaaao
b0 aaaar
b0 aaaas
b0 aaabj
b0 aaabm

#675000
0aaaaa

#680000
1aaaaa
0aaaab
b10 aaaac
b10 aaaad
b10 aaaba

#685000
0aaaaa

#690000
1aaaaa
b0 aaaac
b0 aaaad
b10 aaaae
b10 aaaah
b10 aaaai
b0 aaaba
b10 aaabb
b100 aaabe

#695000
0aaaaa

#700000
1aaaaa
b0 aaaae
b10 aaaaf
b0 aaaah
b0 aaaai
b10 aaaaj
b101 aaaam
b101 aaaan
b0 aaabb
b0 aaabe
b100 aaabf
b100 aaabi

#705000
0aaaaa

#710000
1aaaaa
b0 aaaaf
b10 aaaag
b0 aaaaj
b10 aaaak
b0 aaaam
b0 aaaan
b101 aaaao
b101 aaaar
b101 aaaas
b0 aaabf
b0 aaabi
b100 aaabj
b100 aaabm

#715000
0aaaaa

#720000
1aaaaa
1aaaab
b0 aaaag
b0 aaaak
b0 aaaao
b0 aaaar
b0 aaaas
b0 aaabj
b0 aaabm

#725000
0aaaaa

#730000
1aaaaa
0aaaab
b10 aaaac
b10 aaaad
b10 aaaba

#735000
0aaaaa

#740000
1aaaaa
b0 aaaac
b0 aaaad
b10 aaaae
b10 aaaah
b10 aaaai
b0 aaaba
b10 aaabb
b100 aaabe

#745000
0aaaaa

#750000
1aaaaa
b0 aaaae
b10 aaaaf
b0 aaaah
b0 aaaai
b10 aaaaj
b101 aaaam
b101 aaaan
b0 aaabb
b0 aaabe
b100 aaabf
b100 aaabi

#755000
0aaaaa

#760000
1aaaaa
b0 aaaaf
b10 aaaag
b0 aaaaj
b10 aaaak
b0 aaaam
b0 aaaan
b101 aaaao
b101 aaaar
b101 aaaas
b0 aaabf
b0 aaabi
b100 aaabj
b100 aaabm

#765000
0aaaaa

#770000
1aaaaa
1aaaab
b0 aaaag
b0 aaaak
b0 aaaao
b0 aaaar
b0 aaaas
b0 aaabj
b0 aaabm

#775000
0aaaaa

#780000
1aaaaa
0aaaab
b10 aaaac
b10 aaaad
b10 aaaba

#785000
0aaaaa

#790000
1aaaaa
b0 aaaac
b0 aaaad
b10 aaaae
b10 aaaah
b10 aaaai
b0 aaaba
b10 aaabb
b100 aaabe

#795000
0aaaaa

#800000
1aaaaa
b0 aaaae
b10 aaaaf
b0 aaaah
b0 aaaai
b10 aaaaj
b101 aaaam
b101 aaaan
b0 aaabb
b0 aaabe
b100 aaabf
b100 aaabi

#805000
0aaaaa

#810000
1aaaaa
b0 aaaaf
b10 aaaag
b0 aaaaj
b10 aaaak
b0 aaaam
b0 aaaan
b101 aaaao
b101 aaaar
b101 aaaas
b0 aaabf
b0 aaabi
b100 aaabj
b100 aaabm

#815000
0aaaaa

#820000
1aaaaa
1aaaab
b0 aaaag
b0 aaaak
b0 aaaao
b0 aaaar
b0 aaaas
b0 aaabj
b0 aaabm

#825000
0aaaaa

#830000
1aaaaa
0aaaab
b10 aaaac
b10 aaaad
b10 aaaba

#835000
0aaaaa

#840000
1aaaaa
b0 aaaac
b0 aaaad
b10 aaaae
b10 aaaah
b10 aaaai
b0 aaaba
b10 aaabb
b100 aaabe

#845000
0aaaaa

#850000
1aaaaa
b0 aaaae
b10 aaaaf
b0 aaaah
b0 aaaai
b10 aaaaj
b101 aaaam
b101 aaaan
b0 aaabb
b0 aaabe
b100 aaabf
b100 aaabi

#855000
0aaaaa

#860000
1aaaaa
b0 aaaaf
b10 aaaag
b0 aaaaj
b10 aaaak
b0 aaaam
b0 aaaan
b101 aaaao
b101 aaaar
b101 aaaas
b0 aaabf
b0 aaabi
b100 aaabj
b100 aaabm

#865000
0aaaaa

#870000
1aaaaa
1aaaab
b0 aaaag
b0 aaaak
b0 aaaao
b0 aaaar
b0 aaaas
b0 aaabj
b0 aaabm

#875000
0aaaaa

#880000
1aaaaa
0aaaab
b10 aaaac
b10 aaaad
b10 aaaba

#885000
0aaaaa

#890000
1aaaaa
b0 aaaac
b0 aaaad
b10 aaaae
b10 aaaah
b10 aaaai
b0 aaaba
b10 aaabb
b100 aaabe

#895000
0aaaaa

#900000
1aaaaa
b0 aaaae
b10 aaaaf
b0 aaaah
b0 aaaai
b10 aaaaj
b101 aaaam
b101 aaaan
b0 aaabb
b0 aaabe
b100 aaabf
b100 aaabi

#905000
0aaaaa

#910000
1aaaaa
b0 aaaaf
b10 aaaag
b0 aaaaj
b10 aaaak
b0 aaaam
b0 aaaan
b101 aaaao
b101 aaaar
b101 aaaas
b0 aaabf
b0 aaabi
b100 aaabj
b100 aaabm

#915000
0aaaaa

#920000
1aaaaa
1aaaab
b0 aaaag
b0 aaaak
b0 aaaao
b0 aaaar
b0 aaaas
b0 aaabj
b0 aaabm

#925000
0aaaaa

#930000
1aaaaa
0aaaab
b10 aaaac
b10 aaaad
b10 aaaba

#935000
0aaaaa

#940000
1aaaaa
b0 aaaac
b0 aaaad
b10 aaaae
b10 aaaah
b10 aaaai
b0 aaaba
b10 aaabb
b100 aaabe

#945000
0aaaaa

#950000
1aaaaa
b0 aaaae
b10 aaaaf
b0 aaaah
b0 aaaai
b10 aaaaj
b101 aaaam
b101 aaaan
b0 aaabb
b0 aaabe
b100 aaabf
b100 aaabi

#955000
0aaaaa

#960000
1aaaaa
b0 aaaaf
b10 aaaag
b0 aaaaj
b10 aaaak
b0 aaaam
b0 aaaan
b101 aaaao
b101 aaaar
b101 aaaas
b0 aaabf
b0 aaabi
b100 aaabj
b100 aaabm

#965000
0aaaaa

#970000
1aaaaa
1aaaab
b0 aaaag
b0 aaaak
b0 aaaao
b0 aaaar
b0 aaaas
b0 aaabj
b0 aaabm

#975000
0aaaaa

#980000
1aaaaa
0aaaab
b10 aaaac
b10 aaaad
b10 aaaba

#985000
0aaaaa

#990000
1aaaaa
b0 aaaac
b0 aaaad
b10 aaaae
b10 aaaah
b10 aaaai
b0 aaaba
b10 aaabb
b100 aaabe

#995000
0aaaaa

#1000000
1aaaaa
b0 aaaae
b10 aaaaf
b0 aaaah
b0 aaaai
b10 aaaaj
b101 aaaam
b101 aaaan
b0 aaabb
b0 aaabe
b100 aaabf
b100 aaabi

#1005000
0aaaaa

#1010000
1aaaaa
b0 aaaaf
b10 aaaag
b0 aaaaj
b10 aaaak
b0 aaaam
b0 aaaan
b101 aaaao
b101 aaaar
b101 aaaas
b0 aaabf
b0 aaabi
b100 aaabj
b100 aaabm

#1015000
0aaaaa

#1020000
1aaaaa
1aaaab
b0 aaaag
b0 aaaak
b0 aaaao
b0 aaaar
b0 aaaas
b0 aaabj
b0 aaabm

#1025000
0aaaaa

#1030000
1aaaaa
0aaaab
b10 aaaac
b10 aaaad
b10 aaaba

#1035000
0aaaaa

#1040000
1aaaaa
b0 aaaac
b0 aaaad
b10 aaaae
b10 aaaah
b10 aaaai
b0 aaaba
b10 aaabb
b100 aaabe

#1045000
0aaaaa

#1050000
1aaaaa
b0 aaaae
b10 aaaaf
b0 aaaah
b0 aaaai
b10 aaaaj
b101 aaaam
b101 aaaan
b0 aaabb
b0 aaabe
b100 aaabf
b100 aaabi

#1055000
0aaaaa

#1060000
1aaaaa
b0 aaaaf
b10 aaaag
b0 aaaaj
b10 aaaak
b0 aaaam
b0 aaaan
b101 aaaao
b101 aaaar
b101 aaaas
b0 aaabf
b0 aaabi
b100 aaabj
b100 aaabm

#1065000
0aaaaa

#1070000
1aaaaa
1aaaab
b0 aaaag
b0 aaaak
b0 aaaao
b0 aaaar
b0 aaaas
b0 aaabj
b0 aaabm

#1075000
0aaaaa

#1080000
1aaaaa
0aaaab
b10 aaaac
b10 aaaad
b10 aaaba

#1085000
0aaaaa

#1090000
1aaaaa
b0 aaaac
b0 aaaad
b10 aaaae
b10 aaaah
b10 aaaai
b0 aaaba
b10 aaabb
b100 aaabe

#1095000
0aaaaa

#1100000
1aaaaa
b0 aaaae
b10 aaaaf
b0 aaaah
b0 aaaai
b10 aaaaj
b101 aaaam
b101 aaaan
b0 aaabb
b0 aaabe
b100 aaabf
b100 aaabi

#1105000
0aaaaa

#1110000
1aaaaa
b0 aaaaf
b10 aaaag
b0 aaaaj
b10 aaaak
b0 aaaam
b0 aaaan
b101 aaaao
b101 aaaar
b101 aaaas
b0 aaabf
b0 aaabi
b100 aaabj
b100 aaabm

#1115000
0aaaaa

#1120000
1aaaaa
1aaaab
b0 aaaag
b0 aaaak
b0 aaaao
b0 aaaar
b0 aaaas
b0 aaabj
b0 aaabm

#1125000
0aaaaa

#1130000
1aaaaa
0aaaab
b10 aaaac
b10 aaaad
b10 aaaba

#1135000
0aaaaa

#1140000
1aaaaa
b0 aaaac
b0 aaaad
b10 aaaae
b10 aaaah
b10 aaaai
b0 aaaba
b10 aaabb
b100 aaabe

#1145000
0aaaaa

#1150000
1aaaaa
b0 aaaae
b10 aaaaf
b0 aaaah
b0 aaaai
b10 aaaaj
b101 aaaam
b101 aaaan
b0 aaabb
b0 aaabe
b100 aaabf
b100 aaabi

#1155000
0aaaaa

#1160000
1aaaaa
b0 aaaaf
b10 aaaag
b0 aaaaj
b10 aaaak
b0 aaaam
b0 aaaan
b101 aaaao
b101 aaaar
b101 aaaas
b0 aaabf
b0 aaabi
b100 aaabj
b100 aaabm

#1165000
0aaaaa

#1170000
1aaaaa
1aaaab
b0 aaaag
b0 aaaak
b0 aaaao
b0 aaaar
b0 aaaas
b0 aaabj
b0 aaabm

#1175000
0aaaaa

#1180000
1aaaaa
0aaaab
b10 aaaac
b10 aaaad
b10 aaaba

#1185000
0aaaaa

#1190000
1aaaaa
b0 aaaac
b0 aaaad
b10 aaaae
b10 aaaah
b10 aaaai
b0 aaaba
b10 aaabb
b100 aaabe

#1195000
0aaaaa

#1200000
1aaaaa
b0 aaaae
b10 aaaaf
b0 aaaah
b0 aaaai
b10 aaaaj
b101 aaaam
b101 aaaan
b0 aaabb
b0 aaabe
b100 aaabf
b100 aaabi

#1205000
0aaaaa

#1210000
1aaaaa
b0 aaaaf
b10 aaaag
b0 aaaaj
b10 aaaak
b0 aaaam
b0 aaaan
b101 aaaao
b101 aaaar
b101 aaaas
b0 aaabf
b0 aaabi
b100 aaabj
b100 aaabm

#1215000
0aaaaa

#1220000
1aaaaa
1aaaab
b0 aaaag
b0 aaaak
b0 aaaao
b0 aaaar
b0 aaaas
b0 aaabj
b0 aaabm

#1225000
0aaaaa

#1230000
1aaaaa
0aaaab
b10 aaaac
b10 aaaad
b10 aaaba

#1235000
0aaaaa

#1240000
1aaaaa
b0 aaaac
b0 aaaad
b10 aaaae
b101 aaaah
b101 aaaai
b0 aaaba
b10 aaabb
b111 aaabe

#1245000
0aaaaa

#1250000
1aaaaa
b0 aaaae
b10 aaaaf
b0 aaaah
b0 aaaai
b101 aaaaj
b101 aaaam
b101 aaaan
b0 aaabb
b0 aaabe
b111 aaabf
b111 aaabi

#1255000
0aaaaa

#1260000
1aaaaa
b0 aaaaf
b10 aaaag
b0 aaaaj
b101 aaaak
b0 aaaam
b0 aaaan
b101 aaaao
b101 aaaar
b101 aaaas
b0 aaabf
b0 aaabi
b111 aaabj
b111 aaabm

#1265000
0aaaaa

#1270000
1aaaaa
1aaaab
b0 aaaag
b0 aaaak
b0 aaaao
b0 aaaar
b0 aaaas
b0 aaabj
b0 aaabm

#1275000
0aaaaa

#1280000
1aaaaa
0aaaab
b10 aaaac
b10 aaaad
b10 aaaba

#1285000
0aaaaa

#1290000
1aaaaa
b0 aaaac
b0 aaaad
b10 aaaae
b101 aaaah
b101 aaaai
b0 aaaba
b10 aaabb
b111 aaabe

#1295000
0aaaaa

#1300000
1aaaaa
b0 aaaae
b10 aaaaf
b0 aaaah
b0 aaaai
b101 aaaaj
b101 aaaam
b101 aaaan
b0 aaabb
b0 aaabe
b111 aaabf
b111 aaabi

#1305000
0aaaaa

#1310000
1aaaaa
b0 aaaaf
b10 aaaag
b0 aaaaj
b101 aaaak
b0 aaaam
b0 aaaan
b101 aaaao
b101 aaaar
b101 aaaas
b0 aaabf
b0 aaabi
b111 aaabj
b111 aaabm

#1315000
0aaaaa

#1320000
1aaaaa
1aaaab
b0 aaaag
b0 aaaak
b0 aaaao
b0 aaaar
b0 aaaas
b0 aaabj
b0 aaabm

#1325000
0aaaaa

#1330000
1aaaaa
0aaaab
b10 aaaac
b10 aaaad
b10 aaaba

#1335000
0aaaaa

#1340000
1aaaaa
b0 aaaac
b0 aaaad
b10 aaaae
b101 aaaah
b101 aaaai
b0 aaaba
b10 aaabb
b111 aaabe

#1345000
0aaaaa

#1350000
1aaaaa
b0 aaaae
b10 aaaaf
b0 aaaah
b0 aaaai
b101 aaaaj
b101 aaaam
b101 aaaan
b0 aaabb
b0 aaabe
b111 aaabf
b111 aaabi

#1355000
0aaaaa

#1360000
1aaaaa
b0 aaaaf
b10 aaaag
b0 aaaaj
b101 aaaak
b0 aaaam
b0 aaaan
b101 aaaao
b101 aaaar
b101 aaaas
b0 aaabf
b0 aaabi
b111 aaabj
b111 aaabm

#1365000
0aaaaa

#1370000
1aaaaa
1aaaab
b0 aaaag
b0 aaaak
b0 aaaao
b0 aaaar
b0 aaaas
b0 aaabj
b0 aaabm

#1375000
0aaaaa

#1380000
1aaaaa
0aaaab
b10 aaaac
b10 aaaad
b10 aaaba

#1385000
0aaaaa

#1390000
1aaaaa
b0 aaaac
b0 aaaad
b10 aaaae
b101 aaaah
b101 aaaai
b0 aaaba
b10 aaabb
b111 aaabe

#1395000
0aaaaa

#1400000
1aaaaa
b0 aaaae
b10 aaaaf
b0 aaaah
b0 aaaai
b101 aaaaj
b101 aaaam
b101 aaaan
b0 aaabb
b0 aaabe
b111 aaabf
b111 aaabi

#1405000
0aaaaa

#1410000
1aaaaa
b0 aaaaf
b10 aaaag
b0 aaaaj
b101 aaaak
b0 aaaam
b0 aaaan
b101 aaaao
b101 aaaar
b101 aaaas
b0 aaabf
b0 aaabi
b111 aaabj
b111 aaabm

#1415000
0aaaaa

#1420000
1aaaaa
1aaaab
b0 aaaag
b0 aaaak
b0 aaaao
b0 aaaar
b0 aaaas
b0 aaabj
b0 aaabm

#1425000
0aaaaa

#1430000
1aaaaa
0aaaab
b10 aaaac
b10 aaaad
b10 aaaba

#1435000
0aaaaa

#1440000
1aaaaa
b0 aaaac
b0 aaaad
b10 aaaae
b101 aaaah
b101 aaaai
b0 aaaba
b10 aaabb
b111 aaabe

#1445000
0aaaaa

#1450000
1aaaaa
b0 aaaae
b10 aaaaf
b0 aaaah
b0 aaaai
b101 aaaaj
b101 aaaam
b101 aaaan
b0 aaabb
b0 aaabe
b111 aaabf
b111 aaabi

#1455000
0aaaaa

